\contentsline {figure}{\numberline {1}{\ignorespaces \textit {Raspberry Pi 3 Model B, designed by the Raspberry Pi Foundation.}\relax }}{9}
\contentsline {figure}{\numberline {2}{\ignorespaces \textit {Comparison between virtual machines and containers.}\relax }}{14}
\contentsline {figure}{\numberline {3}{\ignorespaces \textit {A certificate chain, consisting of three certificates, one intermediate CA, and one root CA.}\relax }}{18}
\contentsline {figure}{\numberline {4}{\ignorespaces \textit {A new resin.io commit being pushed to a user's fleet.}\relax }}{20}
\contentsline {figure}{\numberline {5}{\ignorespaces \textit {Docker uses multiple read-only image layers and a single read/write container layer.}\relax }}{23}
\contentsline {figure}{\numberline {6}{\ignorespaces \textit {Mockup of cluster communication structure.}\relax }}{29}
\contentsline {figure}{\numberline {7}{\ignorespaces \textit {The basic design of the PostgreSQL database.}\relax }}{33}
\contentsline {figure}{\numberline {8}{\ignorespaces \textit {The web server example page.}\relax }}{38}
